<svg width="93" height="97" viewBox="0 0 93 97" fill="none" xmlns="http://www.w3.org/2000/svg">
    <path d="M50.3489 38.277L45.9385 34.5497L46.5089 28.803C46.5718 28.1685 46.2747 27.5649 45.7335 27.2275C45.1924 26.8903 44.5195 26.8893 43.9772 27.2254L39.0693 30.268L33.7805 27.9501C33.1962 27.6939 32.5305 27.7898 32.0423 28.2003C31.554 28.6111 31.3453 29.2511 31.4976 29.8702L32.8747 35.4782L29.036 39.7915C28.6118 40.2679 28.4972 40.931 28.7367 41.5223C28.9762 42.1134 29.5203 42.5097 30.1563 42.5564L35.9154 42.9796L38.8319 47.9641C39.1335 48.4794 39.6746 48.7871 40.2643 48.7871C40.3043 48.7871 40.3449 48.7856 40.3852 48.7829C41.0212 48.7376 41.5661 48.343 41.8072 47.7523L43.9894 42.4057L49.6317 41.1722C50.2544 41.0356 50.7366 40.5661 50.8898 39.9474C51.0431 39.3286 50.8358 38.6887 50.3489 38.277ZM42.7867 39.7731C42.2517 39.8902 41.8088 40.2628 41.6021 40.7694L40.0808 44.4967L38.047 41.021C37.7706 40.5495 37.2803 40.2439 36.7339 40.2033L32.719 39.9084L35.3958 36.9004C35.7593 36.4916 35.8984 35.9302 35.7681 35.3986L34.8079 31.4891L38.4941 33.1045C38.9954 33.3249 39.5727 33.2839 40.0391 32.9952L43.4608 30.8739L43.0633 34.8799C43.0091 35.4248 43.2264 35.9611 43.6448 36.3148L46.7196 38.9132L42.7867 39.7731Z" fill="white"/>
    <path d="M91.2001 73.2885L86.4856 69.1241C85.2831 68.0622 83.4506 68.0401 82.2227 69.0724L82.0113 69.2503C81.8029 68.4993 81.4221 67.7885 80.8634 67.1868C80.1808 66.4515 79.314 65.9485 78.3592 65.7223C78.9099 64.0309 78.554 62.0975 77.2606 60.7041C76.3406 59.713 75.0898 59.1397 73.7386 59.0899C73.6979 59.0884 73.6575 59.089 73.617 59.0884C73.6789 57.7766 73.236 56.4421 72.2743 55.406C71.3657 54.4271 70.1341 53.8568 68.8019 53.7947C68.922 52.4185 68.4836 50.9988 67.4721 49.9092C66.5521 48.9182 65.3013 48.3449 63.9501 48.2951C62.5986 48.2441 61.3092 48.7244 60.3185 49.6445L59.6471 50.2682C58.6718 49.5642 57.505 49.1645 56.2657 49.1237C56.1096 49.1184 55.9545 49.1207 55.7999 49.1268L56.3031 47.4476C57.2054 44.4361 57.767 38.9766 57.7503 39.2695C57.799 39.293 57.8467 39.3175 57.8966 39.3396C58.5888 39.6484 59.3347 39.8019 60.0775 39.8019C60.9291 39.8019 61.7767 39.6001 62.5342 39.199C64.111 38.3643 65.2301 36.6195 65.3191 34.857C65.4038 33.1797 64.614 31.6988 63.0953 30.6865C62.4451 30.2536 61.567 30.4291 61.1339 31.0791C60.7008 31.7291 60.8767 32.6072 61.5267 33.0405C62.2021 33.4904 62.5275 34.0535 62.494 34.7141C62.4548 35.4913 61.915 36.326 61.2107 36.6988C60.5648 37.041 59.7365 37.0628 59.0488 36.7559C58.6097 36.5602 58.0404 36.1435 57.8225 35.2715C57.1736 32.6743 58.6616 30.0964 60.3843 27.1117C63.5047 21.7053 67.3882 14.9773 59.2591 5.36896L55.8925 1.38969C55.2145 0.588114 54.2649 0.0995145 53.2188 0.0135028C52.1726 -0.072509 51.156 0.254487 50.3561 0.934624C48.1871 2.77895 47.0595 5.57168 47.3395 8.40495L47.5075 10.1047C47.5937 10.9764 47.258 11.8327 46.612 12.4189L48.4347 14.5862C49.7948 13.3984 50.5005 11.6266 50.3224 9.82642L50.1544 8.12664C49.9655 6.2162 50.7258 4.33322 52.1883 3.08965C52.4113 2.90001 52.694 2.80832 52.9869 2.83276C53.2786 2.85663 53.5435 2.99303 53.7328 3.21659L57.0993 7.19586C63.9435 15.2857 61.0244 20.3433 57.9341 25.6975C57.4506 26.535 56.9633 27.3804 56.5225 28.2375C55.3537 24.2211 53.3976 20.4869 50.693 17.2714L44.2194 9.57444L44.2557 9.54394C44.7752 9.10706 45.0935 8.49418 45.1519 7.81803C45.2102 7.14168 45.0018 6.48333 44.5649 5.96404L42.4965 3.50475C42.0596 2.98527 41.4467 2.66698 40.7706 2.60863C40.0944 2.55047 39.4361 2.75849 38.9164 3.19537L6.22871 30.6875C5.15659 31.5891 5.01791 33.1949 5.91952 34.2674L7.98797 36.7267C8.42485 37.2462 9.03773 37.5644 9.71408 37.6228C9.78872 37.6292 9.86299 37.6325 9.93687 37.6325C10.5338 37.6325 11.106 37.4246 11.5679 37.0359L11.6044 37.005L14.0357 39.8959C13.351 40.4233 12.4587 40.6048 11.6213 40.3754L9.97439 39.9233C7.22921 39.1697 4.28606 39.8104 2.10242 41.6377C1.29743 42.3116 0.803528 43.2583 0.712022 44.3042C0.620327 45.35 0.942018 46.3681 1.6178 47.1716L4.97282 51.1605C13.0736 60.7925 20.3602 58.0989 26.2151 55.9342C28.8574 54.9574 31.2051 54.0897 33.3129 54.3939C33.7041 54.504 34.0978 54.608 34.4945 54.7039C34.5599 54.7295 34.6251 54.7558 34.6901 54.7842C35.5129 55.1457 35.8275 55.7771 35.9467 56.243C36.1331 56.9724 35.9719 57.7852 35.5259 58.3643C35.0398 58.9958 34.1261 59.3862 33.3533 59.2947C32.6964 59.2163 32.1963 58.8006 31.8665 58.0591C31.5491 57.3454 30.7134 57.0245 29.9992 57.3417C29.2855 57.659 28.9642 58.4948 29.2816 59.2087C30.0233 60.8763 31.3502 61.9044 33.0176 62.1035C33.2017 62.1255 33.3872 62.1363 33.5734 62.1363C35.1614 62.1361 36.7928 61.3552 37.7668 60.0902C38.7459 58.819 39.0899 57.1189 38.687 55.5426C38.6777 55.5066 38.6665 55.4716 38.6565 55.4359C39.9428 55.5809 41.2478 55.657 42.567 55.657C43.9799 55.657 45.4091 55.5725 46.8456 55.4011L46.9708 55.3861C46.3266 56.1545 45.8252 57.0378 45.501 57.9843L39.9411 71.6601L10.2838 94.4644C9.80369 94.8335 9.61177 95.4676 9.80691 96.0409C10.0019 96.6143 10.5403 97.0001 11.146 97.0001H44.7496C45.1312 97.0001 45.4967 96.8458 45.7628 96.5727L47.6344 94.651C48.1795 94.0914 48.1678 93.1958 47.6081 92.6508C47.0485 92.1059 46.1529 92.1175 45.6081 92.6771L44.1529 94.1713H15.306L41.97 73.6693C41.9897 73.6541 42.0073 73.6377 42.0259 73.6217C42.0386 73.6109 42.0516 73.6005 42.064 73.5891C42.109 73.5479 42.1509 73.5043 42.1896 73.4584C42.1971 73.4493 42.2042 73.4397 42.2115 73.4302C42.2468 73.3862 42.279 73.3406 42.3083 73.2932C42.3138 73.2843 42.3199 73.2758 42.3252 73.2667C42.3586 73.2102 42.3874 73.1521 42.4124 73.0922C42.4141 73.0882 42.4165 73.0846 42.418 73.0807L48.138 59.0111C48.149 58.984 48.1592 58.9565 48.1685 58.9289C48.4463 58.1021 48.9314 57.347 49.5714 56.7445L53.6339 52.9209C54.3314 52.2643 55.2309 51.9195 56.1723 51.9509C57.0611 51.9803 57.878 52.348 58.4725 52.9867L58.6237 53.1491L58.6239 53.1492L58.6241 53.1494L63.593 58.4865C63.5932 58.4867 63.5934 58.4869 63.5934 58.4871C63.5936 58.4873 63.5938 58.4875 63.594 58.4876L63.5942 58.4878C63.5945 58.4882 63.5947 58.4886 63.5951 58.489C63.5955 58.4894 63.5959 58.4897 63.5963 58.4901L64.3003 59.2462C64.5969 59.5649 64.7512 59.9858 64.7351 60.4314C64.7178 60.91 64.5102 61.3577 64.1508 61.6917L63.3318 62.4527C62.7651 62.979 61.9599 63.0785 61.3348 62.7598C61.3185 62.7509 61.3014 62.7435 61.2845 62.7352C61.1394 62.6547 61.0049 62.5508 60.8865 62.4237L58.8239 60.2049C58.0868 59.412 57.0796 58.9552 55.9882 58.9188C54.8699 58.8823 53.7983 59.2877 52.9749 60.0626C52.8982 60.1349 52.8304 60.2147 52.7724 60.3005C52.6275 60.515 52.5436 60.7662 52.5314 61.0267C52.529 61.0788 52.5295 61.1313 52.5329 61.184C52.5331 61.1858 52.5331 61.1877 52.5331 61.1896C52.54 61.2971 52.5447 61.4033 52.5475 61.509C52.549 61.5685 52.5489 61.6275 52.5492 61.6866C52.5496 61.732 52.5504 61.7777 52.5498 61.8228C52.5491 61.8982 52.5464 61.9728 52.5436 62.0473C52.5426 62.0744 52.5419 62.1015 52.5405 62.1286C52.5364 62.2127 52.5305 62.2962 52.5237 62.379C52.5227 62.3898 52.522 62.4008 52.521 62.4116C52.517 62.447 52.5138 62.4825 52.5125 62.5181C52.3804 63.8276 51.9072 64.9995 51.0802 66.0728C50.6034 66.6915 50.7186 67.5797 51.3373 68.0564C51.9559 68.533 52.8442 68.4178 53.3209 67.7991C53.8108 67.1633 54.2126 66.4936 54.5283 65.793L66.5583 82.2468L66.2713 82.4881C66.0917 82.5497 65.9214 82.6479 65.7729 82.7846C64.7731 83.7044 63.5495 84.3243 62.2303 84.5805L53.3732 85.217C53.0276 85.2418 52.7031 85.3926 52.4613 85.6408L50.2002 87.9624C49.6552 88.522 49.6669 89.4176 50.2265 89.9626C50.5014 90.2303 50.8574 90.3637 51.2132 90.3637C51.5813 90.3637 51.9492 90.2209 52.2264 89.9363L54.1122 87.9999L62.5139 87.3963C62.53 87.3952 62.5457 87.392 62.5616 87.3902C62.5982 87.8968 62.7498 88.3991 63.0286 88.8526L66.3232 94.2109C66.8213 95.021 67.6452 95.5725 68.5838 95.7241C68.7577 95.7523 68.932 95.7662 69.1054 95.7662C69.8685 95.7662 70.613 95.4986 71.206 94.9998L91.1399 78.2347C91.8676 77.6228 92.2914 76.7265 92.3031 75.7756C92.3149 74.8244 91.9127 73.9182 91.2001 73.2885ZM25.2345 53.2811C19.4355 55.4249 13.9584 57.4496 7.13808 49.3401L3.78306 45.3512C3.59474 45.127 3.50494 44.843 3.53052 44.5513C3.55609 44.2595 3.69383 43.9952 3.91852 43.8075C5.39076 42.5755 7.37528 42.1435 9.22624 42.6515L10.8732 43.1035C12.6078 43.5792 14.462 43.1897 15.8594 42.064L18.0782 44.7023C20.7893 47.9258 24.1423 50.4978 27.9099 52.3386C27.013 52.6239 26.1198 52.9537 25.2345 53.2811ZM53.5929 46.6357L52.525 50.1995C52.234 50.3953 51.9559 50.6153 51.6948 50.8608L50.3415 52.1345L46.5104 52.5923C36.2119 53.8227 26.3916 50.1923 20.2429 42.8814L13.7695 35.1845L16.2966 33.0591C16.8945 32.5562 16.9715 31.6639 16.4686 31.0662C15.966 30.4683 15.0735 30.3908 14.4758 30.894L10.8667 33.9292C10.8665 33.9294 10.8663 33.9296 10.8661 33.9296C10.866 33.9298 10.8658 33.93 10.8656 33.9302L9.96757 34.6855L8.26969 32.6669L40.5173 5.54554L42.2151 7.56435L41.3185 8.31856C41.3179 8.31913 41.3171 8.31951 41.3166 8.31989C41.316 8.32027 41.3154 8.32102 41.3149 8.3214L19.5772 26.6036C18.9795 27.1066 18.9024 27.9988 19.4052 28.5965C19.9078 29.1944 20.7999 29.2709 21.398 28.7687L42.0549 11.3951L48.5283 19.092C54.6772 26.4032 56.5704 36.7 53.5929 46.6357ZM77.2746 68.4167C77.856 68.4383 78.3944 68.685 78.7902 69.1114C79.465 69.8385 79.5575 70.9281 79.0331 71.7551L72.8704 76.9383C72.2065 76.994 71.5618 76.7492 71.1009 76.2527C70.2841 75.3729 70.3353 73.9925 71.2145 73.1754L72.1074 72.3458C72.2706 72.2268 72.4284 72.0985 72.5786 71.9591L76.0278 68.7549C76.3968 68.5201 76.8265 68.4021 77.2746 68.4167ZM72.1988 62.3716C72.5869 62.0749 73.0568 61.915 73.5492 61.915C73.5772 61.915 73.6054 61.9156 73.6337 61.9166C74.2297 61.9387 74.7814 62.1915 75.1872 62.6285C76.0244 63.5301 75.9721 64.9452 75.0707 65.7825L74.256 66.5394C74.0933 66.658 73.936 66.7855 73.7862 66.9248L70.3328 70.133C69.9535 70.376 69.5106 70.4997 69.0514 70.4817C68.4553 70.4596 67.9037 70.2068 67.4979 69.7698C66.7156 68.9271 66.7105 67.6365 67.449 66.7878C67.4971 66.7463 67.5452 66.7044 67.592 66.661L72.0095 62.5571C72.0749 62.4965 72.1376 62.4347 72.1988 62.3716ZM64.7021 55.5269L61.66 52.2594L62.2437 51.717C62.6806 51.3112 63.2494 51.1037 63.8454 51.1217C64.4414 51.1439 64.9931 51.3966 65.3989 51.8337C66.2361 52.7353 66.1836 54.1503 65.2822 54.9879L64.7021 55.5269ZM65.257 64.5253L66.0762 63.7641C66.9895 62.9157 67.5172 61.7684 67.5619 60.5341C67.6007 59.4622 67.2673 58.4382 66.6186 57.6105L67.0458 57.2136C67.4827 56.8078 68.0503 56.5952 68.6475 56.6183C69.2433 56.6405 69.795 56.8932 70.2008 57.3303C70.9834 58.1734 70.9881 59.4645 70.2491 60.3134C70.2012 60.3547 70.1534 60.396 70.1068 60.4392L65.6893 64.5431C65.624 64.604 65.5607 64.6661 65.4993 64.7294C65.167 64.9836 64.7741 65.1356 64.3594 65.1736C64.6759 64.9963 64.9789 64.7836 65.257 64.5253ZM55.3704 62.1519C55.3746 62.0452 55.3783 61.9387 55.3793 61.8311C55.42 61.8158 55.4617 61.8025 55.5038 61.7911C55.6301 61.7572 55.7614 61.7419 55.894 61.7466C56.2271 61.7576 56.5317 61.8946 56.7523 62.1316L58.8148 64.3503C59.0259 64.5772 59.2557 64.7771 59.4995 64.9499C59.7267 65.4834 60.041 65.9684 60.4384 66.3966C61.3584 67.3876 62.6092 67.9609 63.9606 68.0109C64.0013 68.0122 64.0417 68.0126 64.0822 68.0132C64.0204 69.3246 64.4634 70.6589 65.4249 71.6946C66.1141 72.4371 66.989 72.945 67.9527 73.1743C67.3897 74.8566 67.7381 76.7884 69.0275 78.1773C69.3875 78.5649 69.8027 78.8872 70.2546 79.1382L68.7282 80.422L55.3704 62.1519ZM89.3191 76.0695L69.3852 92.8346C69.2522 92.9467 69.1082 92.9431 69.0349 92.9314C68.9612 92.9194 68.824 92.8774 68.7329 92.7292L65.4383 87.3707C65.3243 87.1853 65.3623 86.9488 65.5291 86.8086L84.0422 71.238C84.043 71.2375 84.0422 71.238 84.043 71.2375C84.1235 71.1696 84.2237 71.1357 84.3238 71.1357C84.4274 71.1357 84.5308 71.1721 84.6125 71.2443L89.327 75.4087C89.4574 75.5238 89.4754 75.6663 89.4744 75.7411C89.4738 75.8156 89.4522 75.9577 89.3191 76.0695Z" fill="white"/>
</svg>
