<svg width="96" height="96" viewBox="0 0 96 96" fill="none" xmlns="http://www.w3.org/2000/svg">
    <path d="M68.4877 0H11.7524C5.66305 0.0078799 0.728461 4.94247 0.720581 11.0319V67.6363C0.728461 73.7257 5.66305 78.6603 11.7524 78.6682H29.0882V75.5162H11.7524C7.40274 75.5111 3.87766 71.986 3.87254 67.6363V40.9755H13.9935C14.9274 40.9071 15.6293 40.0947 15.561 39.1605C15.5478 38.9805 15.506 38.8036 15.4371 38.6367C14.0364 35.4493 15.4848 31.73 18.6722 30.3293C21.8596 28.9287 25.5789 30.377 26.9796 33.5644C27.6897 35.1806 27.6897 37.0205 26.9796 38.6367C26.5903 39.4511 26.935 40.4268 27.7494 40.8161C27.96 40.9168 28.1899 40.9711 28.4232 40.9757H38.5441V50.4315C38.0234 50.3429 37.4963 50.2992 36.9681 50.3007C31.7457 50.299 27.5109 54.5311 27.5089 59.7533C27.5075 63.5157 29.7369 66.9208 33.1858 68.4245L34.4465 65.5373C31.254 64.1485 29.7917 60.4347 31.1803 57.2421C32.1823 54.9386 34.4562 53.4499 36.9681 53.4527C37.8367 53.4525 38.6956 53.6339 39.4897 53.9854C40.2873 54.3335 41.2164 53.969 41.5645 53.1714C41.6511 52.9728 41.6959 52.7585 41.6961 52.5418V40.9755H49.7099C49.6203 41.4959 49.5754 42.0233 49.576 42.5514C49.5854 47.0418 52.7431 50.91 57.1407 51.8182L57.771 48.7309C54.8393 48.1243 52.7344 45.5452 52.7279 42.5514C52.7277 41.6829 52.9092 40.824 53.2606 40.0299C53.6087 39.2322 53.2442 38.3032 52.4466 37.9551C52.248 37.8684 52.0337 37.8237 51.817 37.8235H41.6961V29.8097C42.2165 29.8993 42.7439 29.9442 43.272 29.9436C48.4944 29.9436 52.7279 25.7101 52.7279 20.4877C52.7279 15.2653 48.4944 11.0319 43.272 11.0319C42.7439 11.0313 42.2165 11.0762 41.6961 11.1658V3.15196H68.4877C72.8374 3.15708 76.3625 6.68215 76.3676 11.0319V37.8235H66.2467C65.3763 37.8239 64.6711 38.5299 64.6715 39.4003C64.6717 39.617 64.7164 39.8313 64.8031 40.0299C65.1545 40.824 65.3359 41.6829 65.3357 42.5514H68.4877C68.4883 42.0233 68.4434 41.4959 68.3538 40.9755H77.9436C78.8139 40.9755 79.5196 40.2698 79.5196 39.3995V11.0319C79.5117 4.94247 74.5771 0.0078799 68.4877 0ZM43.272 14.1838C46.7536 14.1838 49.576 17.0062 49.576 20.4877C49.576 23.9693 46.7536 26.7917 43.272 26.7917C42.4035 26.7918 41.5446 26.6104 40.7505 26.259C39.9528 25.9109 39.0238 26.2753 38.6757 27.073C38.589 27.2715 38.5443 27.4859 38.5441 27.7026V37.6927H30.5413C30.6203 37.215 30.6612 36.7317 30.6642 36.2475C30.6642 36.2192 30.6642 36.1939 30.6642 36.1656C30.6642 36.1372 30.6642 36.1325 30.6642 36.1167C30.6642 30.8943 26.4307 26.6608 21.2083 26.6608C15.9859 26.6608 11.7524 30.8943 11.7524 36.1167C11.7524 36.1325 11.7524 36.1498 11.7524 36.1656C11.7524 36.1813 11.7524 36.2192 11.7524 36.2475C11.7554 36.7317 11.7964 37.215 11.8754 37.6927H3.87254V11.0319C3.87766 6.68215 7.40274 3.15708 11.7524 3.15196H38.5441V13.2729C38.5445 14.1432 39.2505 14.8485 40.1209 14.8481C40.3376 14.8479 40.5519 14.8032 40.7505 14.7165C41.5446 14.3651 42.4035 14.1836 43.272 14.1838Z" fill="white"/>
    <path d="M91.9083 67.7387L78.659 58.6154L73.5702 45.0194C73.2666 44.2036 72.3592 43.7885 71.5435 44.0921C71.5143 44.1029 71.4854 44.1148 71.4568 44.1274L61.2129 48.6583C60.445 48.9973 60.0778 49.8789 60.3777 50.663C60.5479 51.1042 60.7071 51.4383 60.8757 51.7851C61.0443 52.1318 61.2003 52.4564 61.391 52.9686C62.6144 56.2374 60.9673 59.8807 57.7048 61.1212C54.4439 62.3408 50.8117 60.6862 49.5919 57.4251C49.2859 56.6072 49.1534 55.7347 49.2024 54.8629C49.2481 53.9938 48.5805 53.2521 47.7113 53.2064C47.4935 53.195 47.2758 53.2289 47.0717 53.3059L36.1218 57.4302C35.3088 57.7366 34.8971 58.6431 35.2014 59.4569L39.1319 69.9577C38.6109 70.0526 38.0992 70.1939 37.6032 70.38C32.699 72.2076 30.205 77.6648 32.0325 82.5691C33.8601 87.4733 39.3173 89.9673 44.2215 88.1398C44.7264 87.9516 45.2144 87.7207 45.6801 87.4495L48.4979 94.9764C48.8033 95.7915 49.7115 96.2046 50.5266 95.8993C50.5276 95.8989 50.5284 95.8985 50.5294 95.8983L66.1442 90.0152C67.125 92.1234 68.9299 93.7351 71.1353 94.472L72.1313 91.4777C70.8323 91.04 69.7528 90.1174 69.118 88.9025L73.8696 87.1138C75.4304 91.5039 79.5883 94.434 84.2474 94.4279V91.276C79.9066 91.2494 76.3941 87.7369 76.3675 83.3961C76.3675 82.978 76.2013 82.5773 75.9058 82.2818L70.4182 76.7943C69.6046 75.9736 69.5128 74.6817 70.2023 73.7542C70.6038 73.2123 71.2236 72.8746 71.8965 72.8307C72.5704 72.774 73.2341 73.0222 73.7057 73.5068L84.7092 84.5103L86.9376 82.2818L83.6817 79.0259C84.4838 76.627 84.4344 74.0249 83.5414 71.6582L80.588 63.7704L90.1117 70.328C91.374 71.2141 92.1261 72.6595 92.1273 74.2018V94.5587H95.2793V74.2018C95.2771 71.6264 94.0189 69.2142 91.9083 67.7387ZM80.5896 72.7629C81.025 73.9201 81.1826 75.1631 81.0498 76.3924L75.9342 71.2784C73.8225 69.1128 70.3554 69.0692 68.1898 71.1806C66.0242 73.2923 65.9807 76.7594 68.0921 78.925C68.1242 78.9579 68.1567 78.9906 68.1898 79.0227L73.1746 84.0075L50.9029 92.3965L47.8991 84.37C47.7121 83.8712 47.2858 83.5009 46.7659 83.385C46.6537 83.3602 46.539 83.3474 46.424 83.3472C46.0116 83.3468 45.6157 83.5082 45.3208 83.7964C42.7901 86.1873 38.8002 86.074 36.4092 83.5432C34.0183 81.0126 34.1315 77.0226 36.6624 74.6316C37.2577 74.0692 37.9566 73.6283 38.7206 73.3332C39.2223 73.1473 39.7463 73.0287 40.2792 72.9802C40.607 72.94 40.9376 72.929 41.2674 72.9471C42.1365 72.9926 42.8782 72.325 42.9237 71.4558C42.9351 71.2397 42.9018 71.0236 42.826 70.8211L38.7095 59.8302L46.2144 57.0045C47.1993 62.1331 52.1554 65.4921 57.284 64.5074C57.808 64.4067 58.3226 64.2619 58.8222 64.0744C63.7091 62.2202 66.1792 56.7659 64.3491 51.87C64.2041 51.4823 64.0733 51.175 63.9473 50.9007L71.1968 47.6905L80.5896 72.7629Z" fill="white"/>
</svg>
